<svg xmlns="http://www.w3.org/2000/svg" viewBox="0 0 210.38 270" enable-background="new 0 0 404.7 354" class="iconos_tarjetas" ng-onclick="icono_ips_uno.reset().play();">
<defs>
   <style>.cls-1{fill:#112f59;fill-rule:evenodd;}</style>
</defs>
<g id="Capa_2" data-name="Capa 2">
	<g id="Capa_1-2" data-name="Capa 1">
	<path data-delay="0" data-duration="100" class="cls-1" d="M86.33,134.17c-7.34.8-10.13-2.63-10-9.6.16-6.19,2.2-9.66,9.05-9.72s10.2,2.19,10.28,9.47C95.76,131.19,93.48,134.9,86.33,134.17Z"/>
	<path data-delay="0" data-duration="100" class="cls-1" d="M133.88,124.52c.69,7.14-2.61,10-9.65,9.84-6.32-.11-9.59-2.19-9.53-9.06.05-6.56,1.82-10.4,9.28-10.45C131,114.8,134.37,117.46,133.88,124.52Z"/>
	<path data-delay="0" data-duration="100" class="cls-1" d="M85.72,153.82c6.94-1,9.88,1.89,10,9.1s-2.86,9.73-9.78,9.67c-6.29-.06-9.7-2-9.59-8.88C76.46,157.3,77.91,152.72,85.72,153.82Z"/>
	<path data-delay="0" data-duration="100" class="cls-1" d="M123.84,153.89c7.66-1.2,10.06,2.44,10.21,9.28.18,7.32-3.27,9.52-10,9.42-6.42-.1-9.43-2.33-9.33-9.12S116.51,152.59,123.84,153.89Z"/>
	<path data-delay="0" data-duration="100" class="cls-1" d="M56.76,124.81c1.08,8-3.28,9.52-9.81,9.54-7,0-8.58-3.5-8.63-9.7-.05-6.93,2.47-9.89,9.62-9.83C55.36,114.9,57.76,118.35,56.76,124.81Z"/>
	<path data-delay="0" data-duration="100" class="cls-1" d="M171.78,124.41c1.09,7.7-2.57,10-9.44,10-6.66,0-9-2.81-9-9.36s1.76-10.26,9.21-10.18C169.63,114.91,172.87,117.62,171.78,124.41Z"/>
	<path data-delay="0" data-duration="100" class="cls-1" d="M56.77,163.19c1.23,7.53-2.76,9.4-9.48,9.41s-9-2.74-9-9.25c0-6.72,1.83-9.9,9.31-9.83C54.8,153.6,57.83,156.07,56.77,163.19Z"/>
	<path data-delay="0" data-duration="100" class="cls-1" d="M153.62,163c-1.1-7.32,2.35-9.37,9.34-9.49,7.69-.12,9.06,3.49,9.12,10,.06,6.69-2.67,9.05-9.16,9.08C156,172.62,152.41,170.34,153.62,163Z"/>
	<path data-delay="0" data-duration="100" class="cls-1" d="M38.59,201.68c-1.12-7.76,2.8-9.72,9.61-9.73s8.71,3.05,8.86,9.49c.18,7.43-2.92,9.48-9.85,9.45S37.68,208,38.59,201.68Z"/><path data-delay="0" data-duration="100" class="cls-1" d="M153.61,200.75c-1-7.45,3.27-8.59,9.35-8.79,7.67-.25,9.1,3.67,9.12,10.26,0,7.13-3.44,8.55-9.68,8.66C154.74,211,152.61,207.43,153.61,200.75Z"/>
	<path data-delay="10" data-duration="200" class="cls-1" d="M195.59,58c-13.83,0-27.65,0-42.56,0,0-12.78-.38-24.44.12-36,.4-9-1.59-12-9-22H66.27c-7.44,10-9.43,13.06-9,22,.51,11.56.13,23.19.13,34.11-1.67,1-2.23,1.56-2.79,1.57-13.58.14-27.17.18-40.75.33C2.51,58.13.06,60.5.05,71.7c0,60.84-.16,122.35.24,183.19C.32,259.71,4,266.87,6,270H204.43c2-3.13,5.64-10.28,5.67-15.1.39-60.5.27-121.36.24-181.87C210.33,60.57,208.15,58.08,195.59,58ZM94.73,75h9V22h-9V12h24V22h-5V75h5V89h-24Zm95,174H134c0-8-.4-17.53.11-26.41.5-8.59-3-11.53-11.38-11.16-12,.54-24,.43-36,0-7.55-.26-10.67,2.49-10.36,10.09.37,9,.09,19.48.09,27.48H21.73V75H55.52c7.4,23,7.4,19.66,28.76,19.66,15.24,0,30.48-.5,45.73-.51C148,94.13,149.77,98,154.35,75h35.38Z"/>
	</g>
</g>
</svg>