<svg xmlns="http://www.w3.org/2000/svg" viewBox="0 0 287.72 262.6" enable-background="new 0 0 404.7 354" class="iconos_tarjetas" onclick="icono_estrella_uno.reset().play();">
<defs>
    <style>.cls-1{fill:#112f59;}</style>
</defs>
<g id="Capa_2" data-name="Capa 2">
	<g id="Capa_1-2" data-name="Capa 1">
	<path data-delay="0" data-duration="300" class="cls-1" d="M230.65,262.3l-86-64.13a1.48,1.48,0,0,0-1.74,0l-86,61.63a1.48,1.48,0,0,1-2.25-1.68l32.83-94.54a1.48,1.48,0,0,0-.59-1.72L.67,105.63a1.48,1.48,0,0,1,.81-2.71H108.26a1.48,1.48,0,0,0,1.4-1L142.44,1a1.48,1.48,0,0,1,2.81,0L178,101.89a1.48,1.48,0,0,0,1.4,1H286.24a1.48,1.48,0,0,1,.8,2.72L200.7,161.48a1.48,1.48,0,0,0-.6,1.71l32.82,97.45A1.48,1.48,0,0,1,230.65,262.3Zm-85.89-74.16,70,52.2a1.48,1.48,0,0,0,2.28-1.65l-26.6-79.41a1.48,1.48,0,0,1,.59-1.7l68.78-44.94a1.48,1.48,0,0,0-.81-2.71H173.53a1.48,1.48,0,0,1-1.4-1L145.25,26.13a1.48,1.48,0,0,0-2.81,0l-26.9,82.77a1.48,1.48,0,0,1-1.4,1H28.56a1.48,1.48,0,0,0-.81,2.71L96.66,158a1.48,1.48,0,0,1,.58,1.72L70.66,236.6a1.48,1.48,0,0,0,2.25,1.68L143,188.13A1.48,1.48,0,0,1,144.76,188.14Z"/>
	</g>
</g>
</svg>